<svg width="98" height="98" viewBox="0 0 98 98" fill="none" xmlns="http://www.w3.org/2000/svg">
<path d="M90.2105 3.03092H33.4916C32.8093 3.0298 32.1336 3.16297 31.5029 3.42283C30.8721 3.68269 30.2988 4.06415 29.8157 4.54541C29.3325 5.02668 28.949 5.59833 28.687 6.22772C28.425 6.8571 28.2897 7.53189 28.2887 8.21355V86.7311C28.2916 88.1072 28.8413 89.4257 29.817 90.3969C30.7926 91.3681 32.1144 91.9124 33.4916 91.9101H90.2105C90.8927 91.9112 91.5685 91.7781 92.1992 91.5182C92.8299 91.2583 93.4032 90.8769 93.8864 90.3956C94.3695 89.9144 94.753 89.3427 95.015 88.7133C95.277 88.0839 95.4124 87.4091 95.4133 86.7275V8.21355C95.4124 7.53189 95.277 6.8571 95.015 6.22772C94.753 5.59833 94.3695 5.02668 93.8864 4.54541C93.4032 4.06415 92.8299 3.68269 92.1992 3.42283C91.5685 3.16297 90.8927 3.0298 90.2105 3.03092Z" fill="url(#paint0_linear)"/>
<path d="M92.1675 4.09573H31.53C30.1816 4.09573 29.0885 5.18792 29.0885 6.53519V88.6766C29.0885 90.0239 30.1816 91.116 31.53 91.116H92.1675C93.516 91.116 94.6091 90.0239 94.6091 88.6766V6.53519C94.6091 5.18792 93.516 4.09573 92.1675 4.09573Z" fill="#B1B1B1"/>
<path d="M91.2798 12.3265H32.4172V82.8841H91.2798V12.3265Z" fill="#F6F7F9"/>
<path d="M61.5823 8.88563C62.0239 8.88563 62.3819 8.52794 62.3819 8.0867C62.3819 7.64547 62.0239 7.28778 61.5823 7.28778C61.1407 7.28778 60.7827 7.64547 60.7827 8.0867C60.7827 8.52794 61.1407 8.88563 61.5823 8.88563Z" fill="#F6F7F9"/>
<path d="M61.5826 89.2535C62.9068 89.2535 63.9802 88.181 63.9802 86.858C63.9802 85.5349 62.9068 84.4624 61.5826 84.4624C60.2585 84.4624 59.1851 85.5349 59.1851 86.858C59.1851 88.181 60.2585 89.2535 61.5826 89.2535Z" fill="#F6F7F9"/>
<g opacity="0.2">
<path opacity="0.2" d="M91.2798 12.3265H32.4172V15.843H91.2798V12.3265Z" fill="#C70237"/>
</g>
<path d="M88.9886 33.068H34.1753V33.2509H88.9886V33.068Z" fill="#DCE0ED"/>
<path d="M88.9886 37.3163H34.1753V37.4992H88.9886V37.3163Z" fill="#DCE0ED"/>
<path d="M88.9886 41.5658H34.1753V41.7488H88.9886V41.5658Z" fill="#DCE0ED"/>
<path d="M88.9886 45.8141H34.1753V45.9971H88.9886V45.8141Z" fill="#DCE0ED"/>
<path d="M88.9886 50.0625H34.1753V50.2454H88.9886V50.0625Z" fill="#DCE0ED"/>
<g opacity="0.2">
<path opacity="0.2" d="M88.9883 50.2454H34.1079V41.8903L39.1411 44.3688L44.3501 45.075L48.9206 43.6979L54.4348 39.4252L57.2083 37.8249L59.236 37.4346L61.1758 37.5383L64.3656 39.113L68.703 41.8732L72.1065 42.3099L74.8043 41.3804L80.5248 36.7003L83.4449 35.6599L86.5004 36.1319L88.9883 37.5676V50.2454Z" fill="#C70237"/>
</g>
<path d="M43.674 45.0726C38.7312 45.0726 34.1643 42.0525 34.1069 42.0135L34.2437 41.811C34.3145 41.8586 41.3436 46.5045 47.3168 44.1773C49.4946 43.3235 51.045 42.0086 52.5453 40.7316C54.1115 39.3984 55.5898 38.1396 57.6065 37.5932C59.9187 36.9675 62.4456 37.5334 64.3659 39.1105C66.0078 40.4583 69.277 42.6221 72.7305 41.9757C74.4909 41.6451 75.9741 40.3608 77.5452 39.0008C80.5568 36.393 83.6722 33.6962 89.0606 37.5651L88.9178 37.7627C83.6856 34.006 80.6459 36.6394 77.7051 39.1849C76.1084 40.5669 74.6007 41.8683 72.7757 42.2147C69.2233 42.8807 65.8857 40.673 64.2108 39.2984C62.3516 37.7725 59.9077 37.2248 57.67 37.8286C55.707 38.3604 54.2519 39.6021 52.7028 40.917C51.1878 42.2074 49.6216 43.5406 47.4059 44.4042C46.2145 44.8576 44.9488 45.0843 43.674 45.0726Z" fill="#C70237"/>
<path d="M60.551 38.7799C61.3014 38.7799 61.9097 38.1721 61.9097 37.4224C61.9097 36.6726 61.3014 36.0648 60.551 36.0648C59.8006 36.0648 59.1923 36.6726 59.1923 37.4224C59.1923 38.1721 59.8006 38.7799 60.551 38.7799Z" fill="#C70237"/>
<g opacity="0.2">
<path opacity="0.2" d="M78.2739 19.4583H61.1344C61.0606 19.4583 60.9898 19.4876 60.9376 19.5397C60.8854 19.5919 60.8561 19.6626 60.8561 19.7363V31.3177C60.8562 31.3734 60.873 31.4277 60.9043 31.4738C60.9357 31.5198 60.9801 31.5554 61.032 31.5759C61.0838 31.5964 61.1406 31.6009 61.195 31.5887C61.2494 31.5766 61.2989 31.5485 61.3371 31.5079L64.3072 28.3427C64.3331 28.315 64.3645 28.2929 64.3994 28.2778C64.4342 28.2627 64.4718 28.2549 64.5098 28.2549H78.2739C78.3477 28.2549 78.4185 28.2256 78.4707 28.1735C78.5229 28.1213 78.5522 28.0506 78.5522 27.9768V19.7339C78.5516 19.6606 78.5219 19.5905 78.4698 19.5388C78.4177 19.4872 78.3473 19.4582 78.2739 19.4583Z" fill="#C70237"/>
</g>
<path d="M74.5836 21.6025H64.8236V22.8222H74.5836V21.6025Z" fill="#F6F7F9"/>
<path d="M67.5032 24.3054H64.8236V25.5251H67.5032V24.3054Z" fill="#F6F7F9"/>
<g opacity="0.2">
<path opacity="0.2" d="M41.4838 58.9738H38.8042V60.1935H41.4838V58.9738Z" fill="#C70237"/>
</g>
<g opacity="0.2">
<path opacity="0.2" d="M41.4838 61.3315H38.8042V62.5512H41.4838V61.3315Z" fill="#C70237"/>
</g>
<g opacity="0.2">
<path opacity="0.2" d="M41.4838 63.6893H38.8042V64.909H41.4838V63.6893Z" fill="#C70237"/>
</g>
<g opacity="0.2">
<path opacity="0.2" d="M41.4838 66.0482H38.8042V67.2679H41.4838V66.0482Z" fill="#C70237"/>
</g>
<g opacity="0.2">
<path opacity="0.2" d="M41.4838 68.406H38.8042V69.6257H41.4838V68.406Z" fill="#C70237"/>
</g>
<g opacity="0.2">
<path opacity="0.2" d="M41.4838 70.7636H38.8042V71.9834H41.4838V70.7636Z" fill="#C70237"/>
</g>
<g opacity="0.2">
<path opacity="0.2" d="M41.4838 73.1226H38.8042V74.3424H41.4838V73.1226Z" fill="#C70237"/>
</g>
<g opacity="0.2">
<path opacity="0.2" d="M41.4838 75.4803H38.8042V76.7001H41.4838V75.4803Z" fill="#C70237"/>
</g>
<g opacity="0.2">
<path opacity="0.2" d="M46.5293 76.7001H43.8497V77.9198H46.5293V76.7001Z" fill="#C70237"/>
</g>
<g opacity="0.2">
<path opacity="0.2" d="M51.2499 76.7001H48.5703V77.9198H51.2499V76.7001Z" fill="#C70237"/>
</g>
<g opacity="0.2">
<path opacity="0.2" d="M55.9705 76.7001H53.2909V77.9198H55.9705V76.7001Z" fill="#C70237"/>
</g>
<g opacity="0.2">
<path opacity="0.2" d="M60.6899 76.7001H58.0104V77.9198H60.6899V76.7001Z" fill="#C70237"/>
</g>
<g opacity="0.2">
<path opacity="0.2" d="M65.4108 76.7001H62.7312V77.9198H65.4108V76.7001Z" fill="#C70237"/>
</g>
<g opacity="0.2">
<path opacity="0.2" d="M70.1311 76.7001H67.4515V77.9198H70.1311V76.7001Z" fill="#C70237"/>
</g>
<g opacity="0.2">
<path opacity="0.2" d="M73.2142 76.7001H70.5347V77.9198H73.2142V76.7001Z" fill="#C70237"/>
</g>
<g opacity="0.2">
<path opacity="0.2" d="M77.9351 76.7001H75.2555V77.9198H77.9351V76.7001Z" fill="#C70237"/>
</g>
<g opacity="0.2">
<path opacity="0.2" d="M82.6556 76.7001H79.9761V77.9198H82.6556V76.7001Z" fill="#C70237"/>
</g>
<path d="M74.5833 24.3054H70.5145V25.5251H74.5833V24.3054Z" fill="#F6F7F9"/>
<path d="M46.5293 67.8363H43.8497V75.4804H46.5293V67.8363Z" fill="#C70237"/>
<path d="M51.2499 64.2991H48.5703V75.4803H51.2499V64.2991Z" fill="#C70237"/>
<path d="M55.9705 61.3315H53.2909V75.4804H55.9705V61.3315Z" fill="#C70237"/>
<path d="M60.6899 62.8696H58.0104V75.4792H60.6899V62.8696Z" fill="#C70237"/>
<path d="M65.4108 60.1935H62.7312V75.4804H65.4108V60.1935Z" fill="#C70237"/>
<g opacity="0.2">
<path opacity="0.2" d="M70.1311 66.0482H67.4515V75.4804H70.1311V66.0482Z" fill="#C70237"/>
</g>
<g opacity="0.2">
<path opacity="0.2" d="M74.8507 66.0482H72.1711V75.4804H74.8507V66.0482Z" fill="#6C63FF"/>
</g>
<g opacity="0.2">
<path opacity="0.2" d="M77.9351 66.0482H75.2555V75.4804H77.9351V66.0482Z" fill="#C70237"/>
</g>
<g opacity="0.2">
<path opacity="0.2" d="M82.6556 66.0482H79.9761V75.4804H82.6556V66.0482Z" fill="#C70237"/>
</g>
<path d="M36.1617 42.8451H35.6374C35.5217 42.8451 35.4279 42.9389 35.4279 43.0546V50.4142C35.4279 50.5299 35.5217 50.6237 35.6374 50.6237H36.1617C36.2774 50.6237 36.3712 50.5299 36.3712 50.4142V43.0546C36.3712 42.9389 36.2774 42.8451 36.1617 42.8451Z" fill="#A5A5A5"/>
<path d="M4.45295 36.7508H4.19767C4.12187 36.7508 4.06042 36.8122 4.06042 36.888V39.1744C4.06042 39.2502 4.12187 39.3116 4.19767 39.3116H4.45295C4.52875 39.3116 4.5902 39.2502 4.5902 39.1744V36.888C4.5902 36.8122 4.52875 36.7508 4.45295 36.7508Z" fill="#A5A5A5"/>
<path d="M4.48319 41.4398H4.19589C4.11049 41.4398 4.04126 41.509 4.04126 41.5944V45.7426C4.04126 45.828 4.11049 45.8973 4.19589 45.8973H4.48319C4.5686 45.8973 4.63783 45.828 4.63783 45.7426V41.5944C4.63783 41.509 4.5686 41.4398 4.48319 41.4398Z" fill="#A5A5A5"/>
<path d="M4.47131 47.4563H4.19773C4.11637 47.4563 4.05042 47.5222 4.05042 47.6036V51.8049C4.05042 51.8862 4.11637 51.9522 4.19773 51.9522H4.47131C4.55266 51.9522 4.61862 51.8862 4.61862 51.8049V47.6036C4.61862 47.5222 4.55266 47.4563 4.47131 47.4563Z" fill="#A5A5A5"/>
<path d="M32.671 28.2887H7.62616C5.82264 28.2887 4.3606 29.7506 4.3606 31.554V89.1932C4.3606 90.9966 5.82264 92.4585 7.62616 92.4585H32.671C34.4745 92.4585 35.9366 90.9966 35.9366 89.1932V31.554C35.9366 29.7506 34.4745 28.2887 32.671 28.2887Z" fill="#BDBDBD"/>
<path d="M21.2794 30.2045H17.3349C17.2066 30.2045 17.1025 30.3085 17.1025 30.4369V30.8678C17.1025 30.9962 17.2066 31.1002 17.3349 31.1002H21.2794C21.4078 31.1002 21.5118 30.9962 21.5118 30.8678V30.4369C21.5118 30.3085 21.4078 30.2045 21.2794 30.2045Z" fill="#E6E8EC"/>
<path d="M22.6868 31.1597C22.9672 31.1597 23.1946 30.9323 23.1946 30.6519C23.1946 30.3714 22.9672 30.1441 22.6868 30.1441C22.4063 30.1441 22.179 30.3714 22.179 30.6519C22.179 30.9323 22.4063 31.1597 22.6868 31.1597Z" fill="#E6E8EC"/>
<path d="M33.9867 32.4671V88.2773C33.9865 88.9423 33.7222 89.5799 33.2519 90.05C32.7816 90.5201 32.1438 90.7842 31.4788 90.7842H8.81839C8.15339 90.7842 7.51562 90.5201 7.04531 90.05C6.57501 89.5799 6.31067 88.9423 6.31042 88.2773V32.4671C6.31042 32.1378 6.37529 31.8117 6.50133 31.5074C6.62737 31.2031 6.8121 30.9267 7.04499 30.6938C7.27787 30.4609 7.55435 30.2762 7.85863 30.1502C8.16291 30.0242 8.48904 29.9593 8.81839 29.9593H12.2093V30.3948C12.2103 30.9419 12.4282 31.4663 12.8154 31.8529C13.2025 32.2395 13.7273 32.4568 14.2744 32.457H25.8032C26.0744 32.457 26.3429 32.4036 26.5934 32.2998C26.844 32.1961 27.0717 32.044 27.2634 31.8522C27.4552 31.6605 27.6073 31.4328 27.7111 31.1823C27.8149 30.9317 27.8683 30.6632 27.8683 30.392V29.9593H31.4834C32.1477 29.9605 32.7845 30.2253 33.2538 30.6954C33.7231 31.1656 33.9868 31.8028 33.9867 32.4671Z" fill="white"/>
<path opacity="0.2" d="M34.1853 55.5131V74.4913H33.9868V74.5105H6.31042V51.3246C6.48793 51.1221 6.66788 50.9119 6.85026 50.6942C10.7371 46.0528 16.0202 44.8314 20.1092 44.7033C22.9109 44.6118 25.6998 45.1909 28.3624 46.341C29.7687 46.9485 31.7871 47.6146 33.9868 47.6804V54.8552C34.1213 55.2386 34.1853 55.5131 34.1853 55.5131Z" fill="#C70237" fill-opacity="0.49"/>
<path opacity="0.2" d="M34.1853 55.5131V74.4913H6.31042V62.0593C7.30318 61.8096 8.68937 60.8489 10.4681 58.1947C12.5954 55.019 15.4859 54.1837 17.723 54.0959C19.2556 54.0355 20.7818 54.4289 22.2384 55.2166C23.8771 56.1014 27.0357 57.1682 29.4356 54.0712C32.0891 50.6466 33.5 53.471 33.9868 54.8552C34.1213 55.2386 34.1853 55.5131 34.1853 55.5131Z" fill="#C70237"/>
<path d="M30.1356 78.4378H10.189C9.58265 78.4378 9.09106 78.9294 9.09106 79.5357V84.2933C9.09106 84.8997 9.58265 85.3912 10.189 85.3912H30.1356C30.742 85.3912 31.2336 84.8997 31.2336 84.2933V79.5357C31.2336 78.9294 30.742 78.4378 30.1356 78.4378Z" fill="#C70237"/>
<path d="M18.9728 80.3345V83.6008L21.5347 81.9677L18.9728 80.3345Z" fill="white"/>
<defs>
<linearGradient id="paint0_linear" x1="61.8486" y1="91.9138" x2="61.8486" y2="3.03092" gradientUnits="userSpaceOnUse">
<stop stop-color="#808080" stop-opacity="0.25"/>
<stop offset="0.54" stop-color="#808080" stop-opacity="0.12"/>
<stop offset="1" stop-color="#808080" stop-opacity="0.1"/>
</linearGradient>
</defs>
</svg>
